%YAML 1.1
%TAG !u! tag:unity3d.com,2011:
--- !u!114 &11400000
MonoBehaviour:
  m_ObjectHideFlags: 0
  m_CorrespondingSourceObject: {fileID: 0}
  m_PrefabInstance: {fileID: 0}
  m_PrefabAsset: {fileID: 0}
  m_GameObject: {fileID: 0}
  m_Enabled: 1
  m_EditorHideFlags: 0
  m_Script: {fileID: 11500000, guid: b8c3517954174f144abb4663a82c247b, type: 3}
  m_Name: Red
  m_EditorClassIdentifier: 
  Prefubs: {fileID: 4026195259884558283, guid: 9d351f7235e37fa4a9932ddb75c6e0f9, type: 3}
  Sprites:
  - {fileID: 21300000, guid: cccb52b110409724ca774ad2e569d835, type: 3}
  - {fileID: 21300000, guid: f413f6312008eea4995fe3c4b44f7346, type: 3}
  BaseColor: {r: 0.9811321, g: 0, b: 0, a: 1}
  Score: 100
